01, Chair
02, Ottoman
03, Recliner
04, Stool
05, Bench
06, Couch
07, Bed
08, Futon
09, Hammock
10, Mattress
11, Television
12, Radio
13, Desk
14, Table
15, Bookcase
16, Cabinet
17, Hutch
18, Chest
19, Coat_rack
20, Nightstand
21, Shelf
22, Safe
23, Lamp
24, Curtain
25, Blinds
26, Comforter
27, Pillow
